46.161.63.219:1080:UA_NAKOW25ER:jupTDNp7
46.161.63.83:1080:UA_NAKOW25ER:jupTDNp7
46.161.63.170:1080:UA_NAKOW25ER:jupTDNp7
146.185.200.222:1080:UA_NAKOW25ER:jupTDNp7
46.161.63.115:1080:UA_NAKOW25ER:jupTDNp7
146.185.200.103:1080:UA_NAKOW25ER:jupTDNp7
185.88.36.135:1080:UA_NAKOW25ER:jupTDNp7
79.110.28.13:1080:UA_NAKOW25ER:jupTDNp7
79.110.28.55:1080:UA_NAKOW25ER:jupTDNp7
146.185.200.70:1080:UA_NAKOW25ER:jupTDNp7
79.110.28.54:1080:UA_NAKOW25ER:jupTDNp7
146.185.200.58:1080:UA_NAKOW25ER:jupTDNp7
146.185.200.191:1080:UA_NAKOW25ER:jupTDNp7
46.161.63.74:1080:UA_NAKOW25ER:jupTDNp7
46.161.63.141:1080:UA_NAKOW25ER:jupTDNp7
79.110.28.87:1080:UA_NAKOW25ER:jupTDNp7
46.161.63.240:1080:UA_NAKOW25ER:jupTDNp7
185.88.36.237:1080:UA_NAKOW25ER:jupTDNp7
185.88.36.41:1080:UA_NAKOW25ER:jupTDNp7
79.110.28.226:1080:UA_NAKOW25ER:jupTDNp7
146.185.200.161:1080:UA_NAKOW25ER:jupTDNp7
46.161.63.63:1080:UA_NAKOW25ER:jupTDNp7
79.110.28.249:1080:UA_NAKOW25ER:jupTDNp7
146.185.200.111:1080:UA_NAKOW25ER:jupTDNp7
146.185.200.101:1080:UA_NAKOW25ER:jupTDNp7
146.185.200.130:1080:UA_NAKOW25ER:jupTDNp7
46.161.62.245:1080:UA_NAKOW25ER:jupTDNp7
79.110.28.53:1080:UA_NAKOW25ER:jupTDNp7
79.110.28.72:1080:UA_NAKOW25ER:jupTDNp7
185.88.36.76:1080:UA_NAKOW25ER:jupTDNp7
146.185.200.155:1080:UA_NAKOW25ER:jupTDNp7
146.185.200.51:1080:UA_NAKOW25ER:jupTDNp7
79.110.28.98:1080:UA_NAKOW25ER:jupTDNp7
46.161.62.252:1080:UA_NAKOW25ER:jupTDNp7
146.185.200.246:1080:UA_NAKOW25ER:jupTDNp7
79.110.28.162:1080:UA_NAKOW25ER:jupTDNp7
46.161.62.220:1080:UA_NAKOW25ER:jupTDNp7
46.161.62.224:1080:UA_NAKOW25ER:jupTDNp7
146.185.200.173:1080:UA_NAKOW25ER:jupTDNp7
79.110.28.181:1080:UA_NAKOW25ER:jupTDNp7
79.110.28.49:1080:UA_NAKOW25ER:jupTDNp7
146.185.200.119:1080:UA_NAKOW25ER:jupTDNp7
46.161.63.125:1080:UA_NAKOW25ER:jupTDNp7
46.161.63.196:1080:UA_NAKOW25ER:jupTDNp7
79.110.28.198:1080:UA_NAKOW25ER:jupTDNp7
185.88.36.18:1080:UA_NAKOW25ER:jupTDNp7
185.88.36.143:1080:UA_NAKOW25ER:jupTDNp7
146.185.200.147:1080:UA_NAKOW25ER:jupTDNp7
146.185.200.131:1080:UA_NAKOW25ER:jupTDNp7
79.110.28.247:1080:UA_NAKOW25ER:jupTDNp7
46.161.63.250:1080:UA_NAKOW25ER:jupTDNp7
146.185.200.94:1080:UA_NAKOW25ER:jupTDNp7
79.110.28.164:1080:UA_NAKOW25ER:jupTDNp7
46.161.63.76:1080:UA_NAKOW25ER:jupTDNp7
146.185.200.207:1080:UA_NAKOW25ER:jupTDNp7
185.88.36.231:1080:UA_NAKOW25ER:jupTDNp7
79.110.28.243:1080:UA_NAKOW25ER:jupTDNp7
185.88.36.160:1080:UA_NAKOW25ER:jupTDNp7
46.161.63.157:1080:UA_NAKOW25ER:jupTDNp7
79.110.28.216:1080:UA_NAKOW25ER:jupTDNp7
185.88.36.47:1080:UA_NAKOW25ER:jupTDNp7
79.110.28.22:1080:UA_NAKOW25ER:jupTDNp7
46.161.62.239:1080:UA_NAKOW25ER:jupTDNp7
185.88.36.131:1080:UA_NAKOW25ER:jupTDNp7
79.110.28.88:1080:UA_NAKOW25ER:jupTDNp7
185.88.36.11:1080:UA_NAKOW25ER:jupTDNp7
185.88.36.183:1080:UA_NAKOW25ER:jupTDNp7
79.110.28.100:1080:UA_NAKOW25ER:jupTDNp7
79.110.28.185:1080:UA_NAKOW25ER:jupTDNp7
79.110.28.200:1080:UA_NAKOW25ER:jupTDNp7
146.185.200.228:1080:UA_NAKOW25ER:jupTDNp7
46.161.63.220:1080:UA_NAKOW25ER:jupTDNp7
46.161.63.84:1080:UA_NAKOW25ER:jupTDNp7
46.161.63.66:1080:UA_NAKOW25ER:jupTDNp7
46.161.62.197:1080:UA_NAKOW25ER:jupTDNp7
185.88.36.169:1080:UA_NAKOW25ER:jupTDNp7
79.110.28.52:1080:UA_NAKOW25ER:jupTDNp7
79.110.28.39:1080:UA_NAKOW25ER:jupTDNp7
185.88.36.221:1080:UA_NAKOW25ER:jupTDNp7
185.88.36.235:1080:UA_NAKOW25ER:jupTDNp7
146.185.200.69:1080:UA_NAKOW25ER:jupTDNp7
79.110.28.153:1080:UA_NAKOW25ER:jupTDNp7
46.161.63.214:1080:UA_NAKOW25ER:jupTDNp7
185.88.36.155:1080:UA_NAKOW25ER:jupTDNp7
146.185.200.62:1080:UA_NAKOW25ER:jupTDNp7
146.185.200.89:1080:UA_NAKOW25ER:jupTDNp7
146.185.200.91:1080:UA_NAKOW25ER:jupTDNp7
46.161.63.242:1080:UA_NAKOW25ER:jupTDNp7
79.110.28.70:1080:UA_NAKOW25ER:jupTDNp7
79.110.28.73:1080:UA_NAKOW25ER:jupTDNp7
185.88.36.142:1080:UA_NAKOW25ER:jupTDNp7
185.88.36.40:1080:UA_NAKOW25ER:jupTDNp7
146.185.200.100:1080:UA_NAKOW25ER:jupTDNp7
185.88.36.225:1080:UA_NAKOW25ER:jupTDNp7
79.110.28.188:1080:UA_NAKOW25ER:jupTDNp7
146.185.200.85:1080:UA_NAKOW25ER:jupTDNp7
185.88.36.180:1080:UA_NAKOW25ER:jupTDNp7
185.88.36.215:1080:UA_NAKOW25ER:jupTDNp7
146.185.200.41:1080:UA_NAKOW25ER:jupTDNp7
79.110.28.89:1080:UA_NAKOW25ER:jupTDNp7
185.88.36.162:1080:UA_NAKOW25ER:jupTDNp7
46.161.63.47:1080:UA_NAKOW25ER:jupTDNp7
146.185.200.187:1080:UA_NAKOW25ER:jupTDNp7
79.110.28.157:1080:UA_NAKOW25ER:jupTDNp7
46.161.63.201:1080:UA_NAKOW25ER:jupTDNp7
146.185.200.28:1080:UA_NAKOW25ER:jupTDNp7
46.161.62.213:1080:UA_NAKOW25ER:jupTDNp7
46.161.63.102:1080:UA_NAKOW25ER:jupTDNp7
46.161.63.28:1080:UA_NAKOW25ER:jupTDNp7
146.185.200.106:1080:UA_NAKOW25ER:jupTDNp7
46.161.63.194:1080:UA_NAKOW25ER:jupTDNp7
185.88.36.118:1080:UA_NAKOW25ER:jupTDNp7
79.110.28.171:1080:UA_NAKOW25ER:jupTDNp7
146.185.200.98:1080:UA_NAKOW25ER:jupTDNp7
146.185.200.135:1080:UA_NAKOW25ER:jupTDNp7
46.161.63.29:1080:UA_NAKOW25ER:jupTDNp7
185.88.36.196:1080:UA_NAKOW25ER:jupTDNp7
185.88.36.179:1080:UA_NAKOW25ER:jupTDNp7
79.110.28.62:1080:UA_NAKOW25ER:jupTDNp7
46.161.62.194:1080:UA_NAKOW25ER:jupTDNp7
79.110.28.221:1080:UA_NAKOW25ER:jupTDNp7
146.185.200.38:1080:UA_NAKOW25ER:jupTDNp7
79.110.28.27:1080:UA_NAKOW25ER:jupTDNp7
79.110.28.119:1080:UA_NAKOW25ER:jupTDNp7
46.161.63.85:1080:UA_NAKOW25ER:jupTDNp7
146.185.200.220:1080:UA_NAKOW25ER:jupTDNp7
146.185.200.234:1080:UA_NAKOW25ER:jupTDNp7
79.110.28.215:1080:UA_NAKOW25ER:jupTDNp7
146.185.200.142:1080:UA_NAKOW25ER:jupTDNp7
146.185.200.118:1080:UA_NAKOW25ER:jupTDNp7
46.161.63.238:1080:UA_NAKOW25ER:jupTDNp7
79.110.28.84:1080:UA_NAKOW25ER:jupTDNp7
185.88.36.37:1080:UA_NAKOW25ER:jupTDNp7
46.161.63.231:1080:UA_NAKOW25ER:jupTDNp7
146.185.200.68:1080:UA_NAKOW25ER:jupTDNp7
146.185.200.128:1080:UA_NAKOW25ER:jupTDNp7
46.161.63.128:1080:UA_NAKOW25ER:jupTDNp7
46.161.63.50:1080:UA_NAKOW25ER:jupTDNp7
185.88.36.61:1080:UA_NAKOW25ER:jupTDNp7
79.110.28.78:1080:UA_NAKOW25ER:jupTDNp7
185.88.36.141:1080:UA_NAKOW25ER:jupTDNp7
146.185.200.54:1080:UA_NAKOW25ER:jupTDNp7
46.161.63.61:1080:UA_NAKOW25ER:jupTDNp7
79.110.28.204:1080:UA_NAKOW25ER:jupTDNp7
185.88.36.202:1080:UA_NAKOW25ER:jupTDNp7
46.161.62.196:1080:UA_NAKOW25ER:jupTDNp7
46.161.62.249:1080:UA_NAKOW25ER:jupTDNp7
185.88.36.115:1080:UA_NAKOW25ER:jupTDNp7
185.88.36.163:1080:UA_NAKOW25ER:jupTDNp7
185.88.36.190:1080:UA_NAKOW25ER:jupTDNp7
146.185.200.75:1080:UA_NAKOW25ER:jupTDNp7
146.185.200.159:1080:UA_NAKOW25ER:jupTDNp7
46.161.62.225:1080:UA_NAKOW25ER:jupTDNp7
46.161.63.73:1080:UA_NAKOW25ER:jupTDNp7
146.185.200.15:1080:UA_NAKOW25ER:jupTDNp7
79.110.28.93:1080:UA_NAKOW25ER:jupTDNp7
79.110.28.31:1080:UA_NAKOW25ER:jupTDNp7
46.161.62.218:1080:UA_NAKOW25ER:jupTDNp7
79.110.28.76:1080:UA_NAKOW25ER:jupTDNp7
79.110.28.187:1080:UA_NAKOW25ER:jupTDNp7
185.88.36.181:1080:UA_NAKOW25ER:jupTDNp7
79.110.28.168:1080:UA_NAKOW25ER:jupTDNp7
79.110.28.101:1080:UA_NAKOW25ER:jupTDNp7
79.110.28.194:1080:UA_NAKOW25ER:jupTDNp7
146.185.200.241:1080:UA_NAKOW25ER:jupTDNp7
146.185.200.208:1080:UA_NAKOW25ER:jupTDNp7
46.161.63.167:1080:UA_NAKOW25ER:jupTDNp7
146.185.200.242:1080:UA_NAKOW25ER:jupTDNp7
79.110.28.125:1080:UA_NAKOW25ER:jupTDNp7
46.161.63.243:1080:UA_NAKOW25ER:jupTDNp7
146.185.200.133:1080:UA_NAKOW25ER:jupTDNp7
185.88.36.191:1080:UA_NAKOW25ER:jupTDNp7
79.110.28.30:1080:UA_NAKOW25ER:jupTDNp7
146.185.200.126:1080:UA_NAKOW25ER:jupTDNp7
46.161.63.139:1080:UA_NAKOW25ER:jupTDNp7
185.88.36.52:1080:UA_NAKOW25ER:jupTDNp7
46.161.63.37:1080:UA_NAKOW25ER:jupTDNp7
79.110.28.42:1080:UA_NAKOW25ER:jupTDNp7
46.161.63.40:1080:UA_NAKOW25ER:jupTDNp7
46.161.63.176:1080:UA_NAKOW25ER:jupTDNp7
146.185.200.146:1080:UA_NAKOW25ER:jupTDNp7
185.88.36.107:1080:UA_NAKOW25ER:jupTDNp7
146.185.200.125:1080:UA_NAKOW25ER:jupTDNp7
185.88.36.227:1080:UA_NAKOW25ER:jupTDNp7
46.161.62.246:1080:UA_NAKOW25ER:jupTDNp7
185.88.36.130:1080:UA_NAKOW25ER:jupTDNp7
185.88.36.50:1080:UA_NAKOW25ER:jupTDNp7
146.185.200.244:1080:UA_NAKOW25ER:jupTDNp7
79.110.28.196:1080:UA_NAKOW25ER:jupTDNp7
46.161.63.86:1080:UA_NAKOW25ER:jupTDNp7
46.161.63.225:1080:UA_NAKOW25ER:jupTDNp7
46.161.63.136:1080:UA_NAKOW25ER:jupTDNp7
79.110.28.172:1080:UA_NAKOW25ER:jupTDNp7
185.88.36.75:1080:UA_NAKOW25ER:jupTDNp7
79.110.28.158:1080:UA_NAKOW25ER:jupTDNp7
46.161.63.36:1080:UA_NAKOW25ER:jupTDNp7
185.88.36.214:1080:UA_NAKOW25ER:jupTDNp7
46.161.63.27:1080:UA_NAKOW25ER:jupTDNp7
46.161.63.135:1080:UA_NAKOW25ER:jupTDNp7
79.110.28.59:1080:UA_NAKOW25ER:jupTDNp7
146.185.200.177:1080:UA_NAKOW25ER:jupTDNp7
146.185.200.223:1080:UA_NAKOW25ER:jupTDNp7
146.185.200.183:1080:UA_NAKOW25ER:jupTDNp7
46.161.63.148:1080:UA_NAKOW25ER:jupTDNp7
146.185.200.195:1080:UA_NAKOW25ER:jupTDNp7
146.185.200.122:1080:UA_NAKOW25ER:jupTDNp7
146.185.200.235:1080:UA_NAKOW25ER:jupTDNp7
185.88.36.138:1080:UA_NAKOW25ER:jupTDNp7
185.88.36.209:1080:UA_NAKOW25ER:jupTDNp7
185.88.36.140:1080:UA_NAKOW25ER:jupTDNp7
146.185.200.117:1080:UA_NAKOW25ER:jupTDNp7
79.110.28.18:1080:UA_NAKOW25ER:jupTDNp7
46.161.63.80:1080:UA_NAKOW25ER:jupTDNp7
46.161.63.98:1080:UA_NAKOW25ER:jupTDNp7
146.185.200.230:1080:UA_NAKOW25ER:jupTDNp7
46.161.62.251:1080:UA_NAKOW25ER:jupTDNp7
185.88.36.187:1080:UA_NAKOW25ER:jupTDNp7
79.110.28.58:1080:UA_NAKOW25ER:jupTDNp7
146.185.200.172:1080:UA_NAKOW25ER:jupTDNp7
46.161.63.178:1080:UA_NAKOW25ER:jupTDNp7
46.161.63.64:1080:UA_NAKOW25ER:jupTDNp7
185.88.36.220:1080:UA_NAKOW25ER:jupTDNp7
79.110.28.38:1080:UA_NAKOW25ER:jupTDNp7
146.185.200.240:1080:UA_NAKOW25ER:jupTDNp7
46.161.63.39:1080:UA_NAKOW25ER:jupTDNp7
185.88.36.246:1080:UA_NAKOW25ER:jupTDNp7
185.88.36.158:1080:UA_NAKOW25ER:jupTDNp7
185.88.36.19:1080:UA_NAKOW25ER:jupTDNp7
146.185.200.153:1080:UA_NAKOW25ER:jupTDNp7
185.88.36.150:1080:UA_NAKOW25ER:jupTDNp7
146.185.200.39:1080:UA_NAKOW25ER:jupTDNp7
46.161.62.212:1080:UA_NAKOW25ER:jupTDNp7
79.110.28.130:1080:UA_NAKOW25ER:jupTDNp7
46.161.63.41:1080:UA_NAKOW25ER:jupTDNp7
46.161.63.69:1080:UA_NAKOW25ER:jupTDNp7
46.161.63.156:1080:UA_NAKOW25ER:jupTDNp7
46.161.63.52:1080:UA_NAKOW25ER:jupTDNp7
46.161.63.204:1080:UA_NAKOW25ER:jupTDNp7
46.161.63.162:1080:UA_NAKOW25ER:jupTDNp7
46.161.62.236:1080:UA_NAKOW25ER:jupTDNp7
79.110.28.26:1080:UA_NAKOW25ER:jupTDNp7
146.185.200.123:1080:UA_NAKOW25ER:jupTDNp7
146.185.200.197:1080:UA_NAKOW25ER:jupTDNp7
79.110.28.141:1080:UA_NAKOW25ER:jupTDNp7
79.110.28.142:1080:UA_NAKOW25ER:jupTDNp7
185.88.36.21:1080:UA_NAKOW25ER:jupTDNp7
46.161.63.174:1080:UA_NAKOW25ER:jupTDNp7
46.161.63.137:1080:UA_NAKOW25ER:jupTDNp7
185.88.36.87:1080:UA_NAKOW25ER:jupTDNp7
79.110.28.105:1080:UA_NAKOW25ER:jupTDNp7
146.185.200.42:1080:UA_NAKOW25ER:jupTDNp7
46.161.63.68:1080:UA_NAKOW25ER:jupTDNp7
185.88.36.236:1080:UA_NAKOW25ER:jupTDNp7
46.161.62.226:1080:UA_NAKOW25ER:jupTDNp7
46.161.63.99:1080:UA_NAKOW25ER:jupTDNp7
185.88.36.53:1080:UA_NAKOW25ER:jupTDNp7
146.185.200.18:1080:UA_NAKOW25ER:jupTDNp7
146.185.200.211:1080:UA_NAKOW25ER:jupTDNp7
46.161.63.237:1080:UA_NAKOW25ER:jupTDNp7
79.110.28.180:1080:UA_NAKOW25ER:jupTDNp7
185.88.36.71:1080:UA_NAKOW25ER:jupTDNp7
79.110.28.14:1080:UA_NAKOW25ER:jupTDNp7
46.161.63.97:1080:UA_NAKOW25ER:jupTDNp7
46.161.63.200:1080:UA_NAKOW25ER:jupTDNp7
46.161.63.227:1080:UA_NAKOW25ER:jupTDNp7
146.185.200.251:1080:UA_NAKOW25ER:jupTDNp7
185.88.36.242:1080:UA_NAKOW25ER:jupTDNp7
79.110.28.24:1080:UA_NAKOW25ER:jupTDNp7
46.161.63.129:1080:UA_NAKOW25ER:jupTDNp7
79.110.28.211:1080:UA_NAKOW25ER:jupTDNp7
46.161.63.203:1080:UA_NAKOW25ER:jupTDNp7
46.161.63.172:1080:UA_NAKOW25ER:jupTDNp7
185.88.36.110:1080:UA_NAKOW25ER:jupTDNp7
185.88.36.250:1080:UA_NAKOW25ER:jupTDNp7
146.185.200.221:1080:UA_NAKOW25ER:jupTDNp7
146.185.200.77:1080:UA_NAKOW25ER:jupTDNp7
185.88.36.22:1080:UA_NAKOW25ER:jupTDNp7
79.110.28.178:1080:UA_NAKOW25ER:jupTDNp7
46.161.62.241:1080:UA_NAKOW25ER:jupTDNp7
185.88.36.34:1080:UA_NAKOW25ER:jupTDNp7
46.161.63.12:1080:UA_NAKOW25ER:jupTDNp7
79.110.28.232:1080:UA_NAKOW25ER:jupTDNp7
146.185.200.192:1080:UA_NAKOW25ER:jupTDNp7
46.161.63.90:1080:UA_NAKOW25ER:jupTDNp7
185.88.36.116:1080:UA_NAKOW25ER:jupTDNp7
185.88.36.102:1080:UA_NAKOW25ER:jupTDNp7
46.161.63.16:1080:UA_NAKOW25ER:jupTDNp7
185.88.36.217:1080:UA_NAKOW25ER:jupTDNp7
46.161.62.235:1080:UA_NAKOW25ER:jupTDNp7
146.185.200.140:1080:UA_NAKOW25ER:jupTDNp7
46.161.63.149:1080:UA_NAKOW25ER:jupTDNp7
46.161.63.70:1080:UA_NAKOW25ER:jupTDNp7
46.161.63.213:1080:UA_NAKOW25ER:jupTDNp7
46.161.63.79:1080:UA_NAKOW25ER:jupTDNp7
146.185.200.225:1080:UA_NAKOW25ER:jupTDNp7
185.88.36.88:1080:UA_NAKOW25ER:jupTDNp7
185.88.36.205:1080:UA_NAKOW25ER:jupTDNp7
146.185.200.82:1080:UA_NAKOW25ER:jupTDNp7
185.88.36.147:1080:UA_NAKOW25ER:jupTDNp7
185.88.36.74:1080:UA_NAKOW25ER:jupTDNp7
185.88.36.128:1080:UA_NAKOW25ER:jupTDNp7
146.185.200.249:1080:UA_NAKOW25ER:jupTDNp7
79.110.28.236:1080:UA_NAKOW25ER:jupTDNp7
79.110.28.15:1080:UA_NAKOW25ER:jupTDNp7
46.161.63.218:1080:UA_NAKOW25ER:jupTDNp7
46.161.63.17:1080:UA_NAKOW25ER:jupTDNp7
79.110.28.65:1080:UA_NAKOW25ER:jupTDNp7
79.110.28.152:1080:UA_NAKOW25ER:jupTDNp7
146.185.200.189:1080:UA_NAKOW25ER:jupTDNp7
146.185.200.239:1080:UA_NAKOW25ER:jupTDNp7
46.161.63.112:1080:UA_NAKOW25ER:jupTDNp7
46.161.62.229:1080:UA_NAKOW25ER:jupTDNp7
146.185.200.232:1080:UA_NAKOW25ER:jupTDNp7
185.88.36.60:1080:UA_NAKOW25ER:jupTDNp7
146.185.200.81:1080:UA_NAKOW25ER:jupTDNp7
46.161.63.42:1080:UA_NAKOW25ER:jupTDNp7
146.185.200.201:1080:UA_NAKOW25ER:jupTDNp7
79.110.28.81:1080:UA_NAKOW25ER:jupTDNp7
146.185.200.149:1080:UA_NAKOW25ER:jupTDNp7
185.88.36.238:1080:UA_NAKOW25ER:jupTDNp7
146.185.200.27:1080:UA_NAKOW25ER:jupTDNp7
185.88.36.113:1080:UA_NAKOW25ER:jupTDNp7
79.110.28.94:1080:UA_NAKOW25ER:jupTDNp7
46.161.63.205:1080:UA_NAKOW25ER:jupTDNp7
46.161.63.224:1080:UA_NAKOW25ER:jupTDNp7
79.110.28.147:1080:UA_NAKOW25ER:jupTDNp7
146.185.200.188:1080:UA_NAKOW25ER:jupTDNp7
79.110.28.51:1080:UA_NAKOW25ER:jupTDNp7
46.161.63.13:1080:UA_NAKOW25ER:jupTDNp7
185.88.36.224:1080:UA_NAKOW25ER:jupTDNp7
185.88.36.168:1080:UA_NAKOW25ER:jupTDNp7
79.110.28.177:1080:UA_NAKOW25ER:jupTDNp7
185.88.36.57:1080:UA_NAKOW25ER:jupTDNp7
146.185.200.127:1080:UA_NAKOW25ER:jupTDNp7
146.185.200.47:1080:UA_NAKOW25ER:jupTDNp7
79.110.28.63:1080:UA_NAKOW25ER:jupTDNp7
146.185.200.243:1080:UA_NAKOW25ER:jupTDNp7
46.161.63.121:1080:UA_NAKOW25ER:jupTDNp7
185.88.36.95:1080:UA_NAKOW25ER:jupTDNp7
146.185.200.179:1080:UA_NAKOW25ER:jupTDNp7
79.110.28.235:1080:UA_NAKOW25ER:jupTDNp7
79.110.28.111:1080:UA_NAKOW25ER:jupTDNp7
146.185.200.180:1080:UA_NAKOW25ER:jupTDNp7
46.161.63.93:1080:UA_NAKOW25ER:jupTDNp7
146.185.200.214:1080:UA_NAKOW25ER:jupTDNp7
46.161.63.211:1080:UA_NAKOW25ER:jupTDNp7
146.185.200.12:1080:UA_NAKOW25ER:jupTDNp7
79.110.28.85:1080:UA_NAKOW25ER:jupTDNp7
185.88.36.103:1080:UA_NAKOW25ER:jupTDNp7
46.161.62.210:1080:UA_NAKOW25ER:jupTDNp7