185.124.241.187:12324:7a4da1e75afb:25becbebed
185.124.241.201:12324:7a4da1e75afb:25becbebed
185.124.241.51:12324:7a4da1e75afb:25becbebed
185.124.241.20:12324:7a4da1e75afb:25becbebed
185.124.241.86:12324:7a4da1e75afb:25becbebed
185.124.241.71:12324:7a4da1e75afb:25becbebed
185.124.241.89:12324:7a4da1e75afb:25becbebed
185.124.241.96:12324:7a4da1e75afb:25becbebed
185.124.241.29:12324:7a4da1e75afb:25becbebed
185.124.241.23:12324:7a4da1e75afb:25becbebed
185.124.241.229:12324:7a4da1e75afb:25becbebed
45.9.152.243:12324:7a3b574d4875:f61b19678a
45.9.154.144:12324:7a3b574d4875:f61b19678a
45.9.155.4:12324:7a3b574d4875:f61b19678a
45.9.152.178:12324:7a3b574d4875:f61b19678a
45.9.153.192:12324:7a3b574d4875:f61b19678a
45.9.152.95:12324:7a3b574d4875:f61b19678a
45.9.153.21:12324:7a3b574d4875:f61b19678a
45.9.155.237:12324:7a3b574d4875:f61b19678a
45.9.155.233:12324:7a3b574d4875:f61b19678a
45.9.152.61:12324:7a3b574d4875:f61b19678a
185.60.144.184:12324:7af51285b772:2849f1f52c
185.60.145.78:12324:7af51285b772:2849f1f52c
185.60.146.228:12324:7af51285b772:2849f1f52c
185.60.146.211:12324:7af51285b772:2849f1f52c
185.60.147.21:12324:7af51285b772:2849f1f52c
185.60.146.124:12324:7af51285b772:2849f1f52c
185.60.145.162:12324:7af51285b772:2849f1f52c
185.60.144.21:12324:7af51285b772:2849f1f52c
185.60.146.104:12324:7af51285b772:2849f1f52c
185.60.146.165:12324:7af51285b772:2849f1f52c
85.8.169.252:12324:7a6850a079b8:ab93e4f7a3
85.8.169.36:12324:7a6850a079b8:ab93e4f7a3
85.8.171.52:12324:7a6850a079b8:ab93e4f7a3
85.8.170.6:12324:7a6850a079b8:ab93e4f7a3
85.8.171.88:12324:7a6850a079b8:ab93e4f7a3
85.8.170.71:12324:7a6850a079b8:ab93e4f7a3
85.8.170.16:12324:7a6850a079b8:ab93e4f7a3
85.8.170.54:12324:7a6850a079b8:ab93e4f7a3
85.8.168.190:12324:7a6850a079b8:ab93e4f7a3
85.8.171.243:12324:7a6850a079b8:ab93e4f7a3