23.236.249.208:6258
45.72.40.55:9149
45.128.245.1:9012
185.30.232.142:6021
45.192.136.162:5456
104.227.223.17:8104
45.146.128.31:8100
107.152.165.227:7746
138.128.114.254:7820
154.55.88.220:5820
176.116.231.122:7464
5.182.32.22:7536
193.27.21.116:8203
138.128.107.128:8717
193.8.127.99:9181
45.153.216.242:8299
45.147.28.225:9283
193.27.21.6:8093
138.128.69.11:8080
198.154.89.242:6333
37.35.43.231:9089
200.10.38.152:8674
45.134.184.252:6288
104.227.101.106:6167
185.245.27.203:6976
45.155.68.86:8090
69.88.138.11:7173
138.128.106.72:8637
154.55.89.75:5931
154.92.116.129:6441
193.23.245.24:8595
192.186.172.250:9250
69.58.12.0:8005
103.139.48.79:5964
45.146.89.204:8267
23.229.122.206:8234
45.57.253.81:7618
154.38.39.62:6521
45.137.40.175:8728
45.192.155.246:7257
95.164.235.122:6178
37.35.42.10:8612
45.154.228.206:8230
107.152.190.18:7039
154.194.8.218:5749
45.87.243.69:6071
193.23.245.166:8737
193.39.245.162:6170
154.95.38.122:5780
154.92.114.17:5712
104.144.235.246:7326
156.238.10.152:5234
23.236.162.125:9172
45.155.71.172:8761
45.146.130.115:5792
95.164.235.7:6063
95.164.235.197:6253
193.8.231.44:9050
23.254.90.87:8127
5.154.253.116:8374
154.85.125.18:6229
104.227.13.56:8615
154.95.38.239:5897
45.147.28.178:9236
144.168.146.36:7579
154.13.70.228:6368
179.61.248.94:5185
194.33.61.35:8618
23.236.182.233:7782
45.57.253.85:7622
45.192.156.176:6847
104.144.109.218:6303
45.154.84.69:8120
45.153.22.104:6044
37.35.40.173:8263
45.192.150.159:6342
23.229.122.217:8245
45.57.255.86:7125
154.21.39.118:5956
185.126.65.70:6855
45.57.252.248:8784
138.128.114.13:7579
64.43.91.146:6917
138.128.78.204:7290
107.152.146.102:8620
107.152.177.141:6161
154.12.102.96:6223
45.154.58.5:7518
45.134.187.21:7058
23.236.182.43:7592
192.241.94.84:7639
198.20.191.185:7241
23.229.101.248:8772
84.21.188.19:8553
104.227.13.5:8564
95.164.235.156:6212
192.241.112.195:7697
193.8.215.224:8243
23.236.162.50:9097
45.57.225.90:9172
154.21.38.58:5640
45.57.226.166:9596
45.137.63.92:7121
64.43.89.254:6513
144.168.220.63:8109
104.144.3.136:6215
144.168.146.85:7628
23.254.91.229:9270
107.152.165.202:7721
45.154.228.149:8173
104.144.3.127:6206
104.227.94.171:7731
45.136.173.240:7830
156.238.10.170:5252
37.35.42.117:8719
23.236.255.166:7217
45.151.104.128:9180
45.57.253.97:7634
45.57.237.26:8101
192.241.94.206:7761
192.241.94.139:7694
200.10.38.6:8528
45.153.22.176:6116
154.95.36.131:6825
104.227.28.32:9090
45.128.246.209:7224
45.130.125.224:6241
23.254.62.78:6151
23.254.91.186:9227
192.156.217.212:7286
23.254.90.134:8174
209.127.170.246:8339
107.152.222.87:9110
45.128.245.60:9071
45.87.243.108:6110
45.146.180.112:9182
193.5.65.31:8537
107.152.177.135:6155
45.134.184.4:6040
104.227.101.0:6061
104.144.34.218:7802
45.146.91.77:6243
107.152.214.128:8705
193.8.1.164:6701
95.164.234.30:5735
104.144.26.189:8719
107.152.146.147:8665
23.236.168.11:8559
45.87.248.30:7553
23.236.182.11:7560
45.151.104.188:9240
104.144.51.125:7656
45.87.243.221:6223
45.130.60.124:9651
209.127.164.91:8148
95.164.232.182:5273
195.158.192.77:8654
45.131.213.64:7612
179.61.248.23:5114
138.128.38.18:6085
209.127.170.240:8333
2.56.119.85:5066
45.152.196.186:9219
95.164.232.234:5325
156.238.7.158:6170
193.23.253.201:7773
104.227.13.145:8704
45.82.244.175:6649
23.236.168.191:8739
23.229.119.146:7173
209.127.191.102:9201
37.35.43.7:8865
176.116.231.168:7510
185.245.27.10:6783
23.236.168.7:8555
23.236.255.234:7285
104.227.101.121:6182
104.227.172.99:7677
95.214.248.234:7052
104.227.145.66:8661
107.152.222.110:9133
45.15.129.179:6299
64.43.91.26:6797
91.246.194.113:6626
45.9.122.5:8086
192.186.151.64:8565
209.127.115.125:6221
80.253.249.155:5198
45.192.155.4:7015
104.144.109.137:6222
193.8.138.63:9102
45.57.168.23:7027
45.147.28.14:9072
107.152.222.233:9256
45.137.60.46:6574
154.85.100.180:5221
45.155.70.130:8140
45.89.196.155:6451
45.94.46.179:6193
5.182.32.143:7657
45.9.122.120:8201
179.61.248.28:5119
193.23.245.108:8679
193.8.1.28:6565
154.95.0.118:6371
5.181.43.238:7300
45.72.54.167:8591
45.83.143.120:6158
154.55.89.193:6049
23.250.101.155:8207
192.186.151.129:8630
45.147.28.224:9282
104.227.133.164:7226
198.154.92.231:9301
5.181.42.110:6171
154.21.38.177:5759
45.129.124.136:6657
45.135.36.159:6238
138.128.38.240:6307
154.92.112.4:5025
192.153.171.254:6327
2.59.21.68:7598
45.72.119.251:9327
104.227.76.101:6198
138.128.114.11:7577
154.92.112.234:5255
138.128.114.6:7572
156.238.9.229:7120
209.127.170.237:8330
45.137.43.20:7574
45.89.105.225:6898
45.131.213.5:7553
107.152.165.57:7576
5.183.35.2:5272
45.86.244.174:6241
37.35.40.131:8221
104.227.223.0:8087
23.229.101.56:8580
23.254.62.237:6310
156.238.9.6:6897
138.128.106.55:8620
104.144.26.104:8634
156.238.9.135:7026
45.89.196.167:6463
45.192.156.51:6722
154.95.0.137:6390
182.54.239.83:8100
37.35.42.105:8707
182.54.239.64:8081
193.27.23.58:9146